# This file uses centimeters as units for non-parametric coordinates.

mtllib scale_body.mtl
g default
v -0.527090 -0.326132 0.990093
v 0.291938 -0.326132 0.990093
v -0.527090 0.326132 0.990093
v 0.291938 0.326132 0.990093
v -0.527090 0.326132 -0.990093
v 0.291938 0.326132 -0.990093
v -0.527090 -0.326132 -0.990093
v 0.291938 -0.326132 -0.990093
v -0.175539 0.326132 0.990093
v -0.175539 0.326132 -0.990093
v -0.175539 -0.326132 -0.990093
v -0.175539 -0.326132 0.990093
v -0.027758 0.326132 0.990093
v -0.027758 0.326132 -0.990093
v -0.027758 -0.326132 -0.990093
v -0.027758 -0.326132 0.990093
v -0.527090 0.326132 -0.216444
v -0.527090 -0.326132 -0.216444
v -0.175539 -0.326132 -0.216444
v -0.027758 -0.326132 -0.216444
v 0.291938 -0.326132 -0.216444
v 0.291938 0.326132 -0.216444
v -0.027758 0.326132 -0.216444
v -0.175539 0.326132 -0.216444
v -0.527090 0.326132 0.240847
v -0.527090 -0.326132 0.240847
v -0.175539 -0.326132 0.240847
v -0.027758 -0.326132 0.240847
v 0.291938 -0.326132 0.240847
v 0.291938 0.326132 0.240847
v -0.027758 0.326132 0.240847
v -0.175539 0.326132 0.240847
v -0.224724 0.326132 0.240847
v -0.224724 0.326132 0.990093
v -0.224724 -0.326132 0.990093
v -0.224724 -0.326132 0.240847
v -0.224724 -0.326132 -0.216444
v -0.224724 -0.326132 -0.990093
v -0.224724 0.326132 -0.990093
v -0.224724 0.326132 -0.216444
v -0.513163 0.326132 0.240847
v -0.513163 0.326132 0.990093
v -0.513163 0.326132 0.990093
v -0.513163 -0.326132 0.990093
v -0.513163 -0.326132 0.240847
v -0.513163 -0.326132 -0.216444
v -0.513163 -0.326132 -0.990093
v -0.513163 0.326132 -0.990093
v -0.513163 0.326132 -0.990093
v -0.513163 0.326132 -0.216444
v -0.513163 0.289863 -0.216444
v -0.513163 0.289863 0.240847
v -0.224724 0.289863 0.240847
v -0.224724 0.289863 -0.216444
v -0.027758 0.326132 -0.746459
v 0.291938 0.326132 -0.746459
v 0.291938 -0.326132 -0.746459
v -0.027758 -0.326132 -0.746459
v -0.175539 -0.326132 -0.746459
v -0.224724 -0.326132 -0.746459
v -0.513163 -0.326132 -0.746459
v -0.527090 -0.326132 -0.746459
v -0.527090 0.326132 -0.746459
v -0.513163 0.326132 -0.746459
v -0.224724 0.326132 -0.746459
v -0.175539 0.326132 -0.746459
v -0.027758 0.326132 -0.566697
v 0.291938 0.326132 -0.566697
v 0.291938 -0.326132 -0.566697
v -0.027758 -0.326132 -0.566697
v -0.175539 -0.326132 -0.566697
v -0.224724 -0.326132 -0.566697
v -0.513163 -0.326132 -0.566697
v -0.527090 -0.326132 -0.566697
v -0.527090 0.326132 -0.566697
v -0.513163 0.326132 -0.566697
v -0.224724 0.326132 -0.566697
v -0.175539 0.326132 -0.566697
v -0.027758 0.326132 0.579905
v 0.291938 0.326132 0.579905
v 0.291938 -0.326132 0.579905
v -0.027758 -0.326132 0.579905
v -0.175539 -0.326132 0.579905
v -0.224724 -0.326132 0.579905
v -0.513163 -0.326132 0.579905
v -0.527090 -0.326132 0.579905
v -0.527090 0.326132 0.579905
v -0.513163 0.326132 0.579905
v -0.224724 0.326132 0.579905
v -0.175539 0.326132 0.579905
v -0.027758 0.326132 0.742297
v 0.291938 0.326132 0.742297
v 0.291938 -0.326132 0.742297
v -0.027758 -0.326132 0.742297
v -0.175539 -0.326132 0.742297
v -0.224724 -0.326132 0.742297
v -0.513163 -0.326132 0.742297
v -0.527090 -0.326132 0.742297
v -0.527090 0.326132 0.742297
v -0.513163 0.326132 0.742297
v -0.224724 0.326132 0.742297
v -0.175539 0.326132 0.742297
v -0.175539 0.243885 -0.746459
v -0.027758 0.243885 -0.746459
v -0.175539 0.243885 -0.566697
v -0.027758 0.243885 -0.566697
v -0.175539 0.243885 0.579905
v -0.027758 0.243885 0.579905
v -0.175539 0.243885 0.742297
v -0.027758 0.243885 0.742297
vt 0.432195 0.000000
vt 0.477353 0.000000
vt 0.477353 0.233250
vt 0.432195 0.233250
vt 0.477353 0.338922
vt 0.432195 0.338922
vt 0.432195 0.516750
vt 0.477353 0.516750
vt 0.477353 0.750000
vt 0.432195 0.750000
vt 0.432195 0.911078
vt 0.477353 0.911078
vt 0.477353 1.000000
vt 0.432195 1.000000
vt 0.625000 0.000000
vt 0.713922 0.000000
vt 0.713922 0.233250
vt 0.625000 0.233250
vt 0.286078 0.000000
vt 0.375000 0.000000
vt 0.375000 0.233250
vt 0.286078 0.233250
vt 0.512400 0.516750
vt 0.512400 0.750000
vt 0.512400 0.911078
vt 0.512400 1.000000
vt 0.512400 0.233250
vt 0.512400 0.000000
vt 0.625000 0.338922
vt 0.512400 0.338922
vt 0.625000 0.516750
vt 0.625000 0.750000
vt 0.625000 0.911078
vt 0.625000 1.000000
vt 0.000000 0.644310
vt 1.000000 0.644310
vt 1.000000 1.000000
vt 0.000000 1.000000
vt 0.125000 0.233250
vt 0.225595 0.233250
vt 0.125000 0.000000
vt 0.225595 0.000000
vt 0.477353 0.850595
vt 0.432195 0.850595
vt 0.512400 0.850595
vt 0.625000 0.850595
vt 0.774405 0.233250
vt 0.774405 0.000000
vt 0.875000 0.000000
vt 0.875000 0.233250
vt 0.512400 0.399405
vt 0.625000 0.399405
vt 0.000000 0.000000
vt 1.000000 0.000000
vt 1.000000 0.402381
vt 0.000000 0.402381
vt 0.432195 0.399405
vt 0.477353 0.399405
vt 0.378303 0.250000
vt 0.378303 0.338922
vt 0.378303 0.216501
vt 0.378303 0.000000
vt 0.378303 0.911078
vt 0.378303 1.000000
vt 0.378303 0.850595
vt 0.378303 0.750000
vt 0.378303 0.533499
vt 0.378303 0.500000
vt 0.378303 0.399405
vt 0.378303 0.399405
vt 0.378303 0.338922
vt 0.432195 0.338922
vt 0.432195 0.399405
vt 0.375000 0.338922
vt 0.375000 0.911078
vt 0.375000 1.000000
vt 0.375000 0.850595
vt 0.375000 0.750000
vt 0.375000 0.516750
vt 0.375000 0.399405
vt 0.512400 0.477404
vt 0.000000 0.134918
vt 0.841271 0.233250
vt 0.625000 0.477404
vt 0.625000 0.783729
vt 0.841271 0.000000
vt 0.512400 0.783729
vt 0.477353 0.783729
vt 0.432195 0.783729
vt 0.378303 0.783729
vt 0.158729 0.000000
vt 0.375000 0.783729
vt 0.158729 0.233250
vt 0.375000 0.477404
vt 0.378303 0.466271
vt 0.432195 0.477404
vt 1.000000 0.134918
vt 0.477353 0.477404
vt 0.512400 0.448374
vt 0.000000 0.234465
vt 0.816384 0.233250
vt 0.625000 0.448374
vt 0.625000 0.808616
vt 0.816384 0.000000
vt 0.512400 0.808616
vt 0.477353 0.808616
vt 0.432195 0.808616
vt 0.378303 0.808616
vt 0.183616 0.000000
vt 0.375000 0.808616
vt 0.183616 0.233250
vt 0.375000 0.448374
vt 0.378303 0.441384
vt 0.432195 0.448374
vt 1.000000 0.234465
vt 0.477353 0.448374
vt 0.512400 0.294791
vt 0.000000 0.792854
vt 0.676786 0.233250
vt 0.625000 0.294791
vt 0.676786 0.000000
vt 0.625000 0.948214
vt 0.512400 0.948214
vt 0.477353 0.948214
vt 0.432195 0.948214
vt 0.378303 0.948214
vt 0.323214 0.000000
vt 0.375000 0.948214
vt 0.323214 0.233250
vt 0.375000 0.294791
vt 0.378303 0.301786
vt 0.432195 0.294791
vt 1.000000 0.792854
vt 0.477353 0.294791
vt 0.512400 0.270427
vt 0.000000 0.874862
vt 0.656284 0.233250
vt 0.625000 0.270427
vt 0.656284 0.000000
vt 0.625000 0.968716
vt 0.512400 0.968716
vt 0.477353 0.968716
vt 0.432195 0.968716
vt 0.378303 0.968716
vt 0.343716 0.000000
vt 0.375000 0.968716
vt 0.343716 0.233250
vt 0.375000 0.270427
vt 0.378303 0.281284
vt 0.432195 0.270427
vt 1.000000 0.874862
vt 0.477353 0.270427
vt 0.000000 0.134918
vt 1.000000 0.134918
vt 1.000000 0.234465
vt 0.000000 0.234465
vt 0.000000 0.792854
vt 1.000000 0.792854
vt 1.000000 0.874862
vt 0.000000 0.874862
vn 0.000000 0.000000 1.000000
vn 0.000000 0.000000 1.000000
vn 0.000000 0.000000 1.000000
vn 0.000000 0.000000 1.000000
vn 0.000000 1.000000 -0.000000
vn 0.000000 1.000000 -0.000000
vn 0.000000 1.000000 0.000000
vn 0.000000 1.000000 0.000000
vn 0.000000 0.000000 -1.000000
vn 0.000000 0.000000 -1.000000
vn 0.000000 0.000000 -1.000000
vn 0.000000 0.000000 -1.000000
vn 0.000000 -1.000000 0.000000
vn 0.000000 -1.000000 0.000000
vn -0.000000 -1.000000 -0.000000
vn -0.000000 -1.000000 -0.000000
vn 1.000000 0.000000 0.000000
vn 1.000000 0.000000 0.000000
vn 1.000000 0.000000 0.000000
vn 1.000000 0.000000 0.000000
vn -1.000000 0.000000 0.000000
vn -1.000000 0.000000 0.000000
vn -1.000000 0.000000 0.000000
vn -1.000000 0.000000 0.000000
vn 0.000000 0.000000 -1.000000
vn 0.000000 0.000000 -1.000000
vn 0.000000 0.000000 -1.000000
vn 0.000000 0.000000 -1.000000
vn 0.000000 -1.000000 -0.000000
vn 0.000000 -1.000000 0.000000
vn 0.000000 -1.000000 0.000000
vn 0.000000 -1.000000 -0.000000
vn 0.000000 0.000000 1.000000
vn 0.000000 0.000000 1.000000
vn 0.000000 0.000000 1.000000
vn 0.000000 0.000000 1.000000
vn 0.000000 1.000000 -0.000000
vn 0.000000 1.000000 -0.000000
vn 0.000000 1.000000 0.000000
vn 0.000000 1.000000 0.000000
vn 0.000000 0.000000 -1.000000
vn 0.000000 0.000000 -1.000000
vn 0.000000 0.000000 -1.000000
vn 0.000000 0.000000 -1.000000
vn 0.000000 -1.000000 0.000000
vn 0.000000 -1.000000 0.000000
vn 0.000000 -1.000000 0.000000
vn 0.000000 -1.000000 0.000000
vn 0.000000 0.000000 1.000000
vn 0.000000 0.000000 1.000000
vn 0.000000 0.000000 1.000000
vn 0.000000 0.000000 1.000000
vn 0.000000 1.000000 0.000000
vn 0.000000 1.000000 0.000000
vn 0.000000 1.000000 0.000000
vn 0.000000 1.000000 0.000000
vn -1.000000 0.000000 0.000000
vn -1.000000 0.000000 0.000000
vn -1.000000 0.000000 0.000000
vn -1.000000 0.000000 0.000000
vn 0.000000 -1.000000 0.000000
vn 0.000000 -1.000000 0.000000
vn 0.000000 -1.000000 0.000000
vn 0.000000 -1.000000 0.000000
vn 0.000000 -1.000000 0.000000
vn 0.000000 -1.000000 0.000000
vn 0.000000 -1.000000 0.000000
vn 0.000000 -1.000000 0.000000
vn 0.000000 -1.000000 0.000000
vn 0.000000 -1.000000 0.000000
vn 0.000000 -1.000000 0.000000
vn 0.000000 -1.000000 0.000000
vn 1.000000 0.000000 0.000000
vn 1.000000 0.000000 0.000000
vn 1.000000 0.000000 0.000000
vn 1.000000 0.000000 0.000000
vn 0.000000 1.000000 0.000000
vn 0.000000 1.000000 0.000000
vn 0.000000 1.000000 0.000000
vn 0.000000 1.000000 0.000000
vn 0.000000 1.000000 0.000000
vn 0.000000 1.000000 0.000000
vn 0.000000 1.000000 0.000000
vn 0.000000 1.000000 0.000000
vn 0.000000 1.000000 0.000000
vn 0.000000 1.000000 0.000000
vn 0.000000 1.000000 0.000000
vn 0.000000 1.000000 0.000000
vn -1.000000 0.000000 0.000000
vn -1.000000 0.000000 0.000000
vn -1.000000 0.000000 0.000000
vn -1.000000 0.000000 0.000000
vn 0.000000 -1.000000 0.000000
vn 0.000000 -1.000000 0.000000
vn 0.000000 -1.000000 0.000000
vn 0.000000 -1.000000 0.000000
vn 0.000000 -1.000000 0.000000
vn 0.000000 -1.000000 0.000000
vn 0.000000 -1.000000 0.000000
vn 0.000000 -1.000000 0.000000
vn 0.000000 -1.000000 0.000000
vn 0.000000 -1.000000 0.000000
vn 0.000000 -1.000000 0.000000
vn 0.000000 -1.000000 0.000000
vn 1.000000 0.000000 0.000000
vn 1.000000 0.000000 0.000000
vn 1.000000 0.000000 0.000000
vn 1.000000 0.000000 0.000000
vn 0.000000 1.000000 0.000000
vn 0.000000 1.000000 0.000000
vn 0.000000 1.000000 0.000000
vn 0.000000 1.000000 0.000000
vn 0.000000 1.000000 0.000000
vn 0.000000 1.000000 0.000000
vn 0.000000 1.000000 0.000000
vn 0.000000 1.000000 0.000000
vn 0.000000 1.000000 0.000000
vn 0.000000 1.000000 0.000000
vn 0.000000 1.000000 0.000000
vn 0.000000 1.000000 0.000000
vn 0.000000 1.000000 -0.000000
vn 0.000000 1.000000 -0.000000
vn 0.000000 1.000000 0.000000
vn 0.000000 1.000000 0.000000
vn 0.000000 0.000000 1.000000
vn 0.000000 0.000000 1.000000
vn 0.000000 0.000000 1.000000
vn 0.000000 0.000000 1.000000
vn 0.000000 0.000000 1.000000
vn 0.000000 0.000000 1.000000
vn 0.000000 0.000000 1.000000
vn 0.000000 -1.000000 0.000000
vn 0.000000 -1.000000 0.000000
vn 0.000000 -1.000000 0.000000
vn 0.000000 -1.000000 0.000000
vn 0.000000 -1.000000 0.000000
vn 0.000000 -1.000000 0.000000
vn 0.000000 -1.000000 0.000000
vn 0.000000 -1.000000 0.000000
vn 0.000000 -1.000000 0.000000
vn 0.000000 -1.000000 0.000000
vn 0.000000 -1.000000 0.000000
vn 0.000000 -1.000000 0.000000
vn 0.000000 0.000000 -1.000000
vn 0.000000 0.000000 -1.000000
vn 0.000000 0.000000 -1.000000
vn 0.000000 0.000000 -1.000000
vn 0.000000 0.000000 -1.000000
vn 0.000000 0.000000 -1.000000
vn 0.000000 0.000000 -1.000000
vn 0.000000 1.000000 0.000000
vn 0.000000 1.000000 0.000000
vn 0.000000 1.000000 0.000000
vn 0.000000 1.000000 0.000000
vn 0.000000 1.000000 0.000000
vn 0.000000 1.000000 0.000000
vn 0.000000 1.000000 0.000000
vn 0.000000 1.000000 0.000000
vn -0.000001 1.000000 -0.000000
vn -0.000001 1.000000 -0.000000
vn 0.000000 1.000000 0.000000
vn 0.000000 1.000000 0.000000
vn 0.000000 0.000000 1.000000
vn 0.000000 0.000000 1.000000
vn 0.000000 0.000000 1.000000
vn 0.000000 0.000000 1.000000
vn 0.000000 0.000000 1.000000
vn 0.000000 0.000000 1.000000
vn 0.000000 0.000000 1.000000
vn 0.000000 -1.000000 0.000000
vn 0.000000 -1.000000 0.000000
vn 0.000001 -1.000000 -0.000000
vn 0.000001 -1.000000 -0.000000
vn 0.000000 -1.000000 0.000000
vn 0.000000 -1.000000 0.000000
vn 0.000000 -1.000000 0.000000
vn 0.000000 -1.000000 0.000000
vn 0.000000 -1.000000 0.000000
vn 0.000000 -1.000000 0.000000
vn 0.000000 -1.000000 0.000000
vn 0.000000 -1.000000 0.000000
vn 0.000000 0.000000 -1.000000
vn 0.000000 0.000000 -1.000000
vn 0.000000 0.000000 -1.000000
vn 0.000000 0.000000 -1.000000
vn 0.000000 0.000000 -1.000000
vn 0.000000 0.000000 -1.000000
vn 0.000000 0.000000 -1.000000
vn 0.000000 1.000000 0.000000
vn 0.000000 1.000000 0.000000
vn 0.000000 1.000000 0.000000
vn 0.000000 1.000000 0.000000
vn 0.000000 1.000000 0.000000
vn 0.000000 1.000000 0.000000
vn 0.000000 1.000000 0.000000
vn 0.000000 1.000000 0.000000
vn 1.000000 0.000000 0.000000
vn 1.000000 0.000000 0.000000
vn 1.000000 0.000000 0.000000
vn 1.000000 0.000000 0.000000
vn 0.000000 0.000000 -1.000000
vn 0.000000 0.000000 -1.000000
vn 0.000000 0.000000 -1.000000
vn 0.000000 0.000000 -1.000000
vn -1.000000 0.000000 0.000000
vn -1.000000 0.000000 0.000000
vn -1.000000 0.000000 0.000000
vn -1.000000 0.000000 0.000000
vn 0.000000 0.000000 1.000000
vn 0.000000 0.000000 1.000000
vn 0.000000 0.000000 1.000000
vn 0.000000 0.000000 1.000000
vn 0.000000 1.000000 0.000000
vn 0.000000 1.000000 0.000000
vn 1.000000 0.000000 0.000000
vn 1.000000 0.000000 0.000000
vn 0.000000 -1.000000 0.000000
vn 0.000000 -1.000000 0.000000
vn 0.000000 -1.000000 0.000000
vn 0.000000 -1.000000 0.000000
vn 0.000000 -1.000000 0.000000
vn 0.000000 -1.000000 0.000000
vn 0.000000 -1.000000 0.000000
vn 0.000000 -1.000000 0.000000
vn 0.000000 -1.000000 0.000000
vn 0.000000 -1.000000 0.000000
vn -1.000000 0.000000 0.000000
vn -1.000000 0.000000 0.000000
vn 0.000000 1.000000 0.000000
vn 0.000000 1.000000 0.000000
vn 0.000000 1.000000 0.000000
vn 0.000000 1.000000 0.000000
vn 0.000000 1.000000 0.000000
vn 0.000000 1.000000 0.000000
vn 0.000000 1.000000 0.000000
vn 0.000000 1.000000 0.000000
vn 0.000000 1.000000 0.000000
vn 0.000000 1.000000 0.000000
vn 0.000000 1.000000 0.000000
vn 0.000000 1.000000 0.000000
vn 1.000000 0.000000 0.000000
vn 1.000000 0.000000 0.000000
vn 0.000000 -1.000000 0.000000
vn 0.000000 -1.000000 0.000000
vn 0.000000 -1.000000 0.000000
vn 0.000000 -1.000000 0.000000
vn 0.000000 -1.000000 0.000000
vn 0.000000 -1.000000 0.000000
vn 0.000000 -1.000000 0.000000
vn 0.000000 -1.000000 0.000000
vn 0.000000 -1.000000 0.000000
vn 0.000000 -1.000000 0.000000
vn -1.000000 0.000000 0.000000
vn -1.000000 0.000000 0.000000
vn 0.000000 1.000000 0.000000
vn 0.000000 1.000000 0.000000
vn 0.000000 1.000000 0.000000
vn 0.000000 1.000000 0.000000
vn 0.000000 1.000000 0.000000
vn 0.000000 1.000000 0.000000
vn 0.000000 1.000000 0.000000
vn 0.000000 1.000000 0.000000
vn 0.000000 1.000000 0.000000
vn 0.000000 1.000000 0.000000
vn 0.000000 1.000000 -0.000000
vn 0.000000 1.000000 -0.000000
vn 1.000000 0.000000 0.000000
vn 1.000000 0.000000 0.000000
vn 0.000000 -1.000000 0.000000
vn 0.000000 -1.000000 0.000000
vn 0.000000 -1.000000 -0.000000
vn 0.000000 -1.000000 -0.000000
vn -0.000000 -1.000000 -0.000000
vn -0.000000 -1.000000 -0.000000
vn 0.000000 -1.000000 0.000000
vn 0.000000 -1.000000 0.000000
vn 0.000001 -1.000000 -0.000000
vn 0.000001 -1.000000 -0.000000
vn -1.000000 0.000000 0.000000
vn -1.000000 0.000000 0.000000
vn -0.000001 1.000000 -0.000000
vn -0.000001 1.000000 -0.000000
vn 0.000000 1.000000 -0.000000
vn 0.000000 1.000000 -0.000000
vn 0.000000 1.000000 -0.000000
vn 0.000000 1.000000 -0.000000
vn 0.000000 1.000000 -0.000000
vn 0.000000 1.000000 -0.000000
vn 0.000000 1.000000 -0.000000
vn 0.000000 1.000000 -0.000000
vn 0.000000 1.000000 0.000000
vn 0.000000 1.000000 0.000000
vn 1.000000 0.000000 0.000000
vn 1.000000 0.000000 0.000000
vn 0.000000 -1.000000 0.000000
vn 0.000000 -1.000000 0.000000
vn 0.000000 -1.000000 0.000000
vn 0.000000 -1.000000 0.000000
vn 0.000000 -1.000000 0.000000
vn 0.000000 -1.000000 0.000000
vn 0.000000 -1.000000 0.000000
vn 0.000000 -1.000000 0.000000
vn 0.000000 -1.000000 0.000000
vn 0.000000 -1.000000 0.000000
vn -1.000000 0.000000 0.000000
vn -1.000000 0.000000 0.000000
vn 0.000000 1.000000 0.000000
vn 0.000000 1.000000 0.000000
vn 0.000000 1.000000 0.000000
vn 0.000000 1.000000 0.000000
vn 0.000000 1.000000 0.000000
vn 0.000000 1.000000 0.000000
vn 0.000000 1.000000 0.000000
vn 0.000000 1.000000 0.000000
vn 0.000000 1.000000 0.000000
vn 0.000000 1.000000 0.000000
vn 0.000000 0.000000 1.000000
vn 0.000000 0.000000 1.000000
vn 0.000000 0.000000 1.000000
vn 0.000000 0.000000 1.000000
vn 1.000000 0.000000 0.000000
vn 1.000000 0.000000 0.000000
vn 1.000000 0.000000 0.000000
vn 1.000000 0.000000 0.000000
vn 0.000000 0.000000 -1.000000
vn 0.000000 0.000000 -1.000000
vn 0.000000 0.000000 -1.000000
vn 0.000000 0.000000 -1.000000
vn -1.000000 0.000000 0.000000
vn -1.000000 0.000000 0.000000
vn -1.000000 0.000000 0.000000
vn -1.000000 0.000000 0.000000
vn 0.000000 0.000000 1.000000
vn 0.000000 0.000000 1.000000
vn 0.000000 0.000000 1.000000
vn 0.000000 0.000000 1.000000
vn 1.000000 0.000000 0.000000
vn 1.000000 0.000000 0.000000
vn 1.000000 0.000000 0.000000
vn 1.000000 0.000000 0.000000
vn 0.000000 0.000000 -1.000000
vn 0.000000 0.000000 -1.000000
vn 0.000000 0.000000 -1.000000
vn 0.000000 0.000000 -1.000000
vn -1.000000 0.000000 0.000000
vn -1.000000 0.000000 0.000000
vn -1.000000 0.000000 0.000000
vn -1.000000 0.000000 0.000000
s off
g scale_body1:pCube1
usemtl scale_body1:initialShadingGroup
f 35/1/1 12/2/2 9/3/3 34/4/4
s 1
f 89/132/5 90/134/6 32/5/7 33/6/8
s off
f 39/7/9 10/8/10 11/9/11 38/10/12
s 2
f 36/11/13 27/12/14 83/124/15 84/125/16
s 3
f 81/121/17 29/16/18 30/17/19 80/119/20
s 4
f 26/19/21 86/127/22 87/129/23 25/22/24
s off
f 11/9/25 10/8/26 14/23/27 15/24/28
s 5
f 83/124/29 27/12/30 28/25/31 82/123/32
s off
f 13/27/33 9/3/34 12/2/35 16/28/36
s 6
f 79/117/37 80/120/38 30/29/39 31/30/40
s off
f 15/24/41 14/23/42 6/31/43 8/32/44
s 7
f 82/123/45 28/25/46 29/33/47 81/122/48
s off
f 13/27/49 16/28/50 2/15/51 4/18/52
f 31/35/53 32/36/54 90/133/55 79/118/56
s 8
f 7/41/57 62/91/58 63/93/59 5/39/60
s 9
f 38/10/61 11/9/62 59/88/63 60/89/64
s 10
f 58/87/65 59/88/66 11/9/67 15/24/68
s 11
f 57/85/69 58/87/70 15/24/71 8/32/72
s 12
f 56/83/73 57/86/74 8/49/75 6/50/76
s 13
f 55/81/77 56/84/78 6/31/79 14/23/80
s off
f 14/53/81 10/54/82 66/97/83 55/82/84
s 14
f 65/96/85 66/98/86 10/8/87 39/7/88
s off
f 18/42/89 26/19/90 25/22/91 17/40/92
f 37/44/93 19/43/94 27/12/95 36/11/96
f 28/25/97 27/12/98 19/43/99 20/45/100
f 29/33/101 28/25/102 20/45/103 21/46/104
f 30/17/105 29/16/106 21/48/107 22/47/108
f 31/30/109 30/29/110 22/52/111 23/51/112
f 23/56/113 24/55/114 32/36/115 31/35/116
f 40/57/117 33/6/118 32/5/119 24/58/120
s 15
f 88/131/121 89/132/122 33/6/123 41/60/124
s off
f 43/61/125 34/4/126 42/59/127
f 44/62/128 35/1/129 34/4/130 43/61/131
s 16
f 45/63/132 36/11/133 84/125/134 85/126/135
s off
f 46/65/136 37/44/137 36/11/138 45/63/139
s 17
f 47/66/140 38/10/141 60/89/142 61/90/143
s off
f 48/67/144 39/7/145 38/10/146 47/66/147
f 49/68/148 39/7/149 48/67/150
s 18
f 64/95/151 65/96/152 39/7/153 49/68/154
s off
f 51/70/155 52/71/156 53/72/157 54/73/158
s 19
f 87/130/159 88/131/160 41/60/161 25/74/162
s off
f 3/21/163 43/61/164 42/59/165
f 1/20/166 44/62/167 43/61/168 3/21/169
s 20
f 26/75/170 45/63/171 85/126/172 86/128/173
s off
f 18/77/174 46/65/175 45/63/176 26/75/177
s 21
f 7/78/178 47/66/179 61/90/180 62/92/181
s off
f 5/79/182 48/67/183 47/66/184 7/78/185
f 5/79/186 49/68/187 48/67/188
s 22
f 63/94/189 64/95/190 49/68/191 5/79/192
s off
f 25/74/193 41/60/194 50/69/195 17/80/196
f 50/69/197 41/60/198 52/71/199 51/70/200
f 41/60/201 33/6/202 53/72/203 52/71/204
f 33/6/205 40/57/206 54/73/207 53/72/208
f 40/57/209 50/69/210 51/70/211 54/73/212
s 13
f 67/99/213 68/102/214 56/84/78 55/81/77
s 12
f 68/101/215 69/104/216 57/86/74 56/83/73
s 11
f 69/103/217 70/105/218 58/87/70 57/85/69
s 10
f 70/105/219 71/106/220 59/88/66 58/87/65
s 9
f 60/89/64 59/88/63 71/106/221 72/107/222
s 17
f 61/90/143 60/89/142 72/107/223 73/108/224
s 21
f 62/92/181 61/90/180 73/108/225 74/110/226
s 8
f 63/93/59 62/91/58 74/109/227 75/111/228
s 22
f 75/112/229 76/113/230 64/95/190 63/94/189
s 18
f 76/113/231 77/114/232 65/96/152 64/95/151
s 14
f 77/114/233 78/116/234 66/98/86 65/96/85
s off
f 104/153/235 103/154/236 105/155/237 106/156/238
s 13
f 23/51/239 22/52/240 68/102/214 67/99/213
s 12
f 22/47/241 21/48/242 69/104/216 68/101/215
s 11
f 21/46/243 20/45/244 70/105/218 69/103/217
s 10
f 20/45/245 19/43/246 71/106/220 70/105/219
s 9
f 72/107/222 71/106/221 19/43/247 37/44/248
s 17
f 73/108/224 72/107/223 37/44/249 46/65/250
s 21
f 74/110/226 73/108/225 46/65/251 18/77/252
s 8
f 75/111/228 74/109/227 18/42/253 17/40/254
s 22
f 17/80/255 50/69/256 76/113/230 75/112/229
s 18
f 50/69/257 40/57/258 77/114/232 76/113/231
s 14
f 40/57/259 24/58/260 78/116/234 77/114/233
s off
f 67/100/261 78/115/262 24/55/263 23/56/264
s 6
f 91/135/265 92/138/266 80/120/38 79/117/37
s 3
f 93/139/267 81/121/17 80/119/20 92/137/268
s 7
f 94/141/269 82/123/45 81/122/48 93/140/270
s 5
f 95/142/271 83/124/29 82/123/32 94/141/272
s 2
f 84/125/16 83/124/15 95/142/273 96/143/274
s 16
f 85/126/135 84/125/134 96/143/275 97/144/276
s 20
f 86/128/173 85/126/172 97/144/277 98/146/278
s 4
f 87/129/23 86/127/22 98/145/279 99/147/280
s 19
f 99/148/281 100/149/282 88/131/160 87/130/159
s 15
f 100/149/283 101/150/284 89/132/122 88/131/121
s 1
f 101/150/285 102/152/286 90/134/6 89/132/5
s off
f 108/157/287 107/158/288 109/159/289 110/160/290
s 6
f 13/27/291 4/18/292 92/138/266 91/135/265
s 3
f 2/15/293 93/139/267 92/137/268 4/18/294
s 7
f 16/26/295 94/141/269 93/140/270 2/34/296
s 5
f 12/13/297 95/142/271 94/141/272 16/26/298
s 2
f 96/143/274 95/142/273 12/13/299 35/14/300
s 16
f 97/144/276 96/143/275 35/14/301 44/64/302
s 20
f 98/146/278 97/144/277 44/64/303 1/76/304
s 4
f 99/147/280 98/145/279 1/20/305 3/21/306
s 19
f 3/21/307 42/59/308 100/149/282 99/148/281
s 15
f 42/59/309 34/4/310 101/150/284 100/149/283
s 1
f 34/4/311 9/3/312 102/152/286 101/150/285
s off
f 91/136/313 102/151/314 9/37/315 13/38/316
f 55/82/317 66/97/318 103/154/319 104/153/320
f 66/97/321 78/115/322 105/155/323 103/154/324
f 78/115/325 67/100/326 106/156/327 105/155/328
f 67/100/329 55/82/330 104/153/331 106/156/332
f 79/118/333 90/133/334 107/158/335 108/157/336
f 90/133/337 102/151/338 109/159/339 107/158/340
f 102/151/341 91/136/342 110/160/343 109/159/344
f 91/136/345 79/118/346 108/157/347 110/160/348
